id,name,model_id:id,group_id:id,perm_read,perm_write,perm_create,perm_unlink
<<<<<<< HEAD
menu_projectos_root7,access.crm_flujo_nuevo_sistemas,model_crm_flujo_nuevo_sistemas,supervisor_flujo_sistemas_group,1,1,1,1
menu_projectos_root8,access.crm_flujo_nuevo_sistemas,model_crm_flujo_nuevo_sistemas,gerente_flujo_sistemas_group,1,1,1,1
menu_projectos_root10,access.flujo_etapas_sistemas,model_flujo_etapas_sistemas,supervisor_flujo_sistemas_group,1,1,1,1
menu_projectos_root11,access.flujo_etapas_sistemas,model_flujo_etapas_sistemas,gerente_flujo_sistemas_group,1,1,1,1
menu_projectos_root12,access.sistemas_lead_tag,model_sistemas_lead_tag,supervisor_flujo_sistemas_group,1,1,1,1
menu_projectos_root13,access.sistemas_lead_tag,model_sistemas_lead_tag,gerente_flujo_sistemas_group,1,1,1,1

menu_projectos_root14,access.creacion_usuarios_guip_sistemas,model_creacion_usuarios_guip_sistemas,supervisor_flujo_sistemas_group,1,1,1,1
menu_projectos_root15,access.creacion_usuarios_guip_sistemas,model_creacion_usuarios_guip_sistemas,gerente_flujo_sistemas_group,1,1,1,1



=======
menu_projectos_root,access.crm_flujo_nuevo_operaciones,model_crm_flujo_nuevo_operaciones,supervisor_flujo_operaciones_group,1,1,1,1
menu_projectos_root1,access.crm_flujo_nuevo_operaciones,model_crm_flujo_nuevo_operaciones,gerente_flujo_operaciones_group,1,1,1,1
menu_projectos_root3,access.flujo_etapas_operaciones,model_flujo_etapas_operaciones,supervisor_flujo_operaciones_group,1,1,1,1
menu_projectos_root4,access.flujo_etapas_operaciones,model_flujo_etapas_operaciones,gerente_flujo_operaciones_group,1,1,1,1
menu_projectos_root5,access.operaciones_lead_tag,model_operaciones_lead_tag,supervisor_flujo_operaciones_group,1,1,1,1
menu_projectos_root6,access.operaciones_lead_tag,model_operaciones_lead_tag,gerente_flujo_operaciones_group,1,1,1,1
>>>>>>> main
